%YAML 1.1
%TAG !u! tag:unity3d.com,2011:
--- !u!1001 &579251749987329715
PrefabInstance:
  m_ObjectHideFlags: 0
  serializedVersion: 2
  m_Modification:
    m_TransformParent: {fileID: 0}
    m_Modifications:
    - target: {fileID: 1230325184218856, guid: 3952c3fe53f74a0409f716652bd8d27d, type: 3}
      propertyPath: m_Name
      value: 2DShipsMissileMedium
      objectReference: {fileID: 0}
    - target: {fileID: 4939776514575168, guid: 3952c3fe53f74a0409f716652bd8d27d, type: 3}
      propertyPath: m_LocalPosition.x
      value: 2.5441647
      objectReference: {fileID: 0}
    - target: {fileID: 4939776514575168, guid: 3952c3fe53f74a0409f716652bd8d27d, type: 3}
      propertyPath: m_LocalPosition.y
      value: 2.0830646
      objectReference: {fileID: 0}
    - target: {fileID: 4939776514575168, guid: 3952c3fe53f74a0409f716652bd8d27d, type: 3}
      propertyPath: m_LocalPosition.z
      value: 0
      objectReference: {fileID: 0}
    - target: {fileID: 4939776514575168, guid: 3952c3fe53f74a0409f716652bd8d27d, type: 3}
      propertyPath: m_LocalRotation.x
      value: 0
      objectReference: {fileID: 0}
    - target: {fileID: 4939776514575168, guid: 3952c3fe53f74a0409f716652bd8d27d, type: 3}
      propertyPath: m_LocalRotation.y
      value: 0
      objectReference: {fileID: 0}
    - target: {fileID: 4939776514575168, guid: 3952c3fe53f74a0409f716652bd8d27d, type: 3}
      propertyPath: m_LocalRotation.z
      value: 1
      objectReference: {fileID: 0}
    - target: {fileID: 4939776514575168, guid: 3952c3fe53f74a0409f716652bd8d27d, type: 3}
      propertyPath: m_LocalRotation.w
      value: 0
      objectReference: {fileID: 0}
    - target: {fileID: 4939776514575168, guid: 3952c3fe53f74a0409f716652bd8d27d, type: 3}
      propertyPath: m_RootOrder
      value: 0
      objectReference: {fileID: 0}
    - target: {fileID: 4939776514575168, guid: 3952c3fe53f74a0409f716652bd8d27d, type: 3}
      propertyPath: m_LocalEulerAnglesHint.x
      value: 0
      objectReference: {fileID: 0}
    - target: {fileID: 4939776514575168, guid: 3952c3fe53f74a0409f716652bd8d27d, type: 3}
      propertyPath: m_LocalEulerAnglesHint.y
      value: 0
      objectReference: {fileID: 0}
    - target: {fileID: 4939776514575168, guid: 3952c3fe53f74a0409f716652bd8d27d, type: 3}
      propertyPath: m_LocalEulerAnglesHint.z
      value: 180
      objectReference: {fileID: 0}
    - target: {fileID: 4939776514575168, guid: 3952c3fe53f74a0409f716652bd8d27d, type: 3}
      propertyPath: m_LocalScale.x
      value: 0.2
      objectReference: {fileID: 0}
    - target: {fileID: 4939776514575168, guid: 3952c3fe53f74a0409f716652bd8d27d, type: 3}
      propertyPath: m_LocalScale.y
      value: 0.2
      objectReference: {fileID: 0}
    - target: {fileID: 4939776514575168, guid: 3952c3fe53f74a0409f716652bd8d27d, type: 3}
      propertyPath: m_LocalScale.z
      value: 0.2
      objectReference: {fileID: 0}
    m_RemovedComponents: []
  m_SourcePrefab: {fileID: 100100000, guid: 3952c3fe53f74a0409f716652bd8d27d, type: 3}
